<?xml version="1.0" encoding="UTF-8" standalone="no"?>
<!-- Created with Inkscape (http://www.inkscape.org/) -->

<svg
   xmlns:osb="http://www.openswatchbook.org/uri/2009/osb"
   xmlns:dc="http://purl.org/dc/elements/1.1/"
   xmlns:cc="http://creativecommons.org/ns#"
   xmlns:rdf="http://www.w3.org/1999/02/22-rdf-syntax-ns#"
   xmlns:svg="http://www.w3.org/2000/svg"
   xmlns="http://www.w3.org/2000/svg"
   xmlns:sodipodi="http://sodipodi.sourceforge.net/DTD/sodipodi-0.dtd"
   xmlns:inkscape="http://www.inkscape.org/namespaces/inkscape"
   width="210mm"
   height="297mm"
   viewBox="0 0 210 297"
   version="1.1"
   id="svg8"
   inkscape:export-filename="C:\Users\igor-\Desktop\TITAN\background2.png"
   inkscape:export-xdpi="96"
   inkscape:export-ydpi="96"
   inkscape:version="0.92.4 (5da689c313, 2019-01-14)"
   sodipodi:docname="Background.svg">
  <defs
     id="defs2">
    <linearGradient
       id="linearGradient11419"
       osb:paint="solid">
      <stop
         style="stop-color:#000000;stop-opacity:1;"
         offset="0"
         id="stop11417" />
    </linearGradient>
  </defs>
  <sodipodi:namedview
     id="base"
     pagecolor="#ffffff"
     bordercolor="#666666"
     borderopacity="1.0"
     inkscape:pageopacity="0.0"
     inkscape:pageshadow="2"
     inkscape:zoom="0.175"
     inkscape:cx="374.14161"
     inkscape:cy="396.83575"
     inkscape:document-units="mm"
     inkscape:current-layer="layer1-2"
     showgrid="false"
     inkscape:window-width="1366"
     inkscape:window-height="705"
     inkscape:window-x="-8"
     inkscape:window-y="-8"
     inkscape:window-maximized="1" />
  <metadata
     id="metadata5">
    <rdf:RDF>
      <cc:Work
         rdf:about="">
        <dc:format>image/svg+xml</dc:format>
        <dc:type
           rdf:resource="http://purl.org/dc/dcmitype/StillImage" />
        <dc:title />
      </cc:Work>
    </rdf:RDF>
  </metadata>
  <g
     inkscape:label="Camada 1"
     inkscape:groupmode="layer"
     id="layer1">
    <g
       id="layer1-2"
       inkscape:label="Camada 1"
       transform="matrix(0.39017786,0,0,0.39017786,-247.33335,-189.60682)">
      <g
         id="g974"
         transform="matrix(0.9657019,0,0,0.9657019,-12.327489,332.54121)"
         style="opacity:0.1">
        <g
           style="display:none"
           inkscape:label="fundo"
           id="layer4">
          <rect
             y="-3.9704165"
             x="0.0041503981"
             height="1079.9685"
             width="1919.9917"
             id="rect4156"
             style="opacity:1;fill:#f2a900;fill-opacity:1;fill-rule:nonzero;stroke:none;stroke-width:1.00157475;stroke-linecap:butt;stroke-linejoin:miter;stroke-miterlimit:4;stroke-dasharray:none;stroke-dashoffset:0;stroke-opacity:0;paint-order:markers fill stroke" />
          <flowRoot
             transform="matrix(1.7791413,0,0,1.7791413,-518.1531,-629.38611)"
             style="font-style:normal;font-variant:normal;font-weight:normal;font-stretch:normal;font-size:40px;line-height:1.25;font-family:AcadEref;-inkscape-font-specification:AcadEref;letter-spacing:0px;word-spacing:0px;fill:#000000;fill-opacity:1;stroke:none"
             id="flowRoot4211"
             xml:space="preserve"><flowRegion
               style="font-size:40px"
               id="flowRegion4213"><rect
                 style="font-size:40px"
                 y="746.24561"
                 x="313.95541"
                 height="313.95538"
                 width="1377.4441"
                 id="rect4215" /></flowRegion><flowPara
               id="flowPara4243"
               style="font-style:normal;font-variant:normal;font-weight:normal;font-stretch:normal;font-size:40px;font-family:ISOCPEUR;-inkscape-font-specification:ISOCPEUR;fill:#424242;fill-opacity:1">IGOR REIS  </flowPara><flowPara
               id="flowPara4261"
               style="font-style:normal;font-variant:normal;font-weight:normal;font-stretch:normal;font-size:40px;font-family:ISOCPEUR;-inkscape-font-specification:ISOCPEUR;fill:#424242;fill-opacity:1">DIRETOR COMERCIAL</flowPara><flowPara
               id="flowPara4241"
               style="font-style:normal;font-variant:normal;font-weight:normal;font-stretch:normal;font-size:40px;font-family:ISOCPEUR;-inkscape-font-specification:ISOCPEUR;fill:#424242;fill-opacity:1">CONTATO@TITANCI.COM.BR</flowPara><flowPara
               id="flowPara4227"
               style="font-style:normal;font-variant:normal;font-weight:normal;font-stretch:normal;font-size:40px;font-family:ISOCPEUR;-inkscape-font-specification:ISOCPEUR;fill:#424242;fill-opacity:1">71999724082</flowPara><flowPara
               id="flowPara4229"
               style="font-style:normal;font-variant:normal;font-weight:normal;font-stretch:normal;font-size:40px;font-family:ISOCT;-inkscape-font-specification:ISOCT" /></flowRoot>          <g
             id="flowRoot4168-9"
             style="font-style:normal;font-variant:normal;font-weight:normal;font-stretch:normal;font-size:300px;line-height:1.25;font-family:AcadEref;-inkscape-font-specification:AcadEref;letter-spacing:0px;word-spacing:0px;fill:#424242;fill-opacity:1;stroke:#424242;stroke-width:5.63484955;stroke-miterlimit:4;stroke-dasharray:none;stroke-opacity:1"
             transform="matrix(0.82372542,0,0,0.82372542,214.68846,-265.92634)"
             aria-label="TITAN">
            <path
               id="path4176-1"
               style="font-style:normal;font-variant:normal;font-weight:normal;font-stretch:normal;font-size:300px;font-family:ISOCT2;-inkscape-font-specification:ISOCT2;fill:#424242;fill-opacity:1;stroke:#424242;stroke-width:5.63484955;stroke-miterlimit:4;stroke-dasharray:none;stroke-opacity:1"
               d="m 520.85742,875.84231 h -57.56836 v 213.57419 h -4.83398 V 875.84231 h -57.56836 v -4.83399 h 119.9707 z"
               inkscape:connector-curvature="0" />
            <path
               id="path4178-2"
               style="font-style:normal;font-variant:normal;font-weight:normal;font-stretch:normal;font-size:300px;font-family:ISOCT2;-inkscape-font-specification:ISOCT2;fill:#424242;fill-opacity:1;stroke:#424242;stroke-width:5.63484955;stroke-miterlimit:4;stroke-dasharray:none;stroke-opacity:1"
               d="M 701.17969,1089.4165 H 696.3457 V 873.35207 h 4.83399 z"
               inkscape:connector-curvature="0" />
            <path
               id="path4180-7"
               style="font-style:normal;font-variant:normal;font-weight:normal;font-stretch:normal;font-size:300px;font-family:ISOCT2;-inkscape-font-specification:ISOCT2;fill:#424242;fill-opacity:1;stroke:#424242;stroke-width:5.63484955;stroke-miterlimit:4;stroke-dasharray:none;stroke-opacity:1"
               d="m 996.63867,875.84231 h -57.56836 v 213.57419 h -4.83398 V 875.84231 h -57.56836 v -4.83399 h 119.9707 z"
               inkscape:connector-curvature="0" />
            <path
               sodipodi:nodetypes="ccccccccccccc"
               inkscape:connector-curvature="0"
               id="path4182-3"
               style="font-style:normal;font-variant:normal;font-weight:normal;font-stretch:normal;font-size:300px;font-family:ISOCT2;-inkscape-font-specification:ISOCT2;fill:#424242;fill-opacity:1;stroke:#424242;stroke-width:5.63484955;stroke-miterlimit:4;stroke-dasharray:none;stroke-opacity:1"
               d="m 1248.8848,1089.4165 h -4.541 l -19.4825,-57.5683 H 1124.373 l -19.4824,57.5683 h -4.541 l 71.6309,-215.91794 h 5.1269 z m -25.6348,-62.4023 -48.6328,-146.04494 -48.7793,146.04494 z" />
            <path
               id="path4184-8"
               style="font-style:normal;font-variant:normal;font-weight:normal;font-stretch:normal;font-size:300px;font-family:ISOCT2;-inkscape-font-specification:ISOCT2;fill:#424242;fill-opacity:1;stroke:#424242;stroke-width:5.63484955;stroke-miterlimit:4;stroke-dasharray:none;stroke-opacity:1"
               d="m 1474.9102,1089.4165 h -5.127 L 1354.793,882.72707 v 206.68943 h -4.6875 V 873.35207 h 5.1269 L 1470.0762,1080.188 V 873.35207 h 4.834 z"
               inkscape:connector-curvature="0" />
          </g>
        </g>
        <g
           id="layer1-0"
           inkscape:label="Camada 1"
           style="">
          <rect
             y="-3.9704165"
             x="0.0041503981"
             height="1079.9685"
             width="1919.9917"
             id="rect2383"
             style="display:inline;opacity:0.98999999;fill:#f2aff0;fill-opacity:0;fill-rule:nonzero;stroke:none;stroke-width:37.15927505;stroke-linecap:butt;stroke-linejoin:miter;stroke-miterlimit:4;stroke-dasharray:none;stroke-dashoffset:0;stroke-opacity:1;paint-order:markers fill stroke" />
          <g
             transform="matrix(0.13584224,-0.01056624,0.01056624,0.13584224,1231.0425,435.12165)"
             style="display:none"
             inkscape:label="PONTEIRO_CENTRO"
             id="layer3">
            <g
               id="g9790"
               style="" />
            <path
               d="M 1871.4095,949.24976 A 900,900 0 0 1 1858.11,1103.3999 L 971.40948,949.24976 Z"
               sodipodi:end="0.17212667"
               sodipodi:start="0"
               sodipodi:ry="900"
               sodipodi:rx="900"
               sodipodi:cy="949.24976"
               sodipodi:cx="971.40948"
               sodipodi:type="arc"
               id="path1052"
               style="display:inline;opacity:0.98999999;fill:#424242;fill-opacity:1;fill-rule:nonzero;stroke:none;stroke-width:5.80000019;stroke-linecap:butt;stroke-linejoin:bevel;stroke-miterlimit:4;stroke-dasharray:none;stroke-dashoffset:0;stroke-opacity:1;paint-order:normal" />
          </g>
          <g
             inkscape:export-ydpi="300"
             inkscape:export-xdpi="300"
             transform="matrix(1.4317023,0,0,1.4317023,-576.04338,-333.41986)"
             id="g4083"
             style="">
            <g
               id="g4059"
               transform="matrix(3.0549254,0,0,3.0549254,-3126.0843,-1081.8021)"
               inkscape:export-xdpi="300"
               inkscape:export-ydpi="300"
               style="">
              <g
                 transform="matrix(0.13584224,-0.01056624,0.01056624,0.13584224,1231.0425,435.12165)"
                 style="display:inline"
                 id="layer1-3"
                 inkscape:label="esfera">
                <g
                   inkscape:export-ydpi="300"
                   inkscape:export-xdpi="300"
                   inkscape:export-filename="C:\Users\igor-\Desktop\g1431.png"
                   transform="rotate(-66.559049,954.24975,924.96951)"
                   id="g1431"
                   style="display:inline">
                  <g
                     style="display:inline"
                     id="g1146"
                     transform="rotate(180,938.41841,948.76903)">
                    <path
                       inkscape:transform-center-y="290.27485"
                       inkscape:transform-center-x="7.8452407"
                       inkscape:connector-curvature="0"
                       d="M 810.60572,1839.5975 A 900.00002,899.99999 0 0 0 1829.2966,1076.532 900.00002,899.99999 0 0 0 1066.2311,57.841121 900.00002,899.99999 0 0 0 47.540215,820.90664 900.00002,899.99999 0 0 0 810.60572,1839.5975 Z"
                       style="display:inline;opacity:1;fill:#424242;fill-opacity:1;fill-rule:nonzero;stroke:none;stroke-width:0.93897641;stroke-linecap:butt;stroke-linejoin:miter;stroke-miterlimit:4;stroke-dasharray:none;stroke-opacity:1;paint-order:normal"
                       id="path1964" />
                  </g>
                </g>
              </g>
              <g
                 id="g4043"
                 style="">
                <g
                   id="g4028"
                   style="">
                  <path
                     inkscape:connector-curvature="0"
                     id="circle9927"
                     d="m 1386.9125,540.89998 c 7.5321,4.64541 17.5191,2.27821 22.1645,-5.25385 4.6454,-7.53206 2.278,-17.51921 -5.2541,-22.16463 -7.5321,-4.6454 -17.519,-2.27783 -22.1644,5.25423 -4.6454,7.53206 -2.2781,17.51884 5.254,22.16425 z m 4.1026,-6.65195 c -3.9371,-2.42821 -5.1328,-7.47261 -2.7046,-11.4097 2.4282,-3.93707 7.4727,-5.13307 11.4098,-2.70487 3.9371,2.4282 5.1329,7.47297 2.7047,11.41005 -2.4282,3.93709 -7.4728,5.13271 -11.4099,2.70452 z"
                     style="color:#000000;font-style:normal;font-variant:normal;font-weight:normal;font-stretch:normal;font-size:medium;line-height:normal;font-family:sans-serif;font-variant-ligatures:normal;font-variant-position:normal;font-variant-caps:normal;font-variant-numeric:normal;font-variant-alternates:normal;font-feature-settings:normal;text-indent:0;text-align:start;text-decoration:none;text-decoration-line:none;text-decoration-style:solid;text-decoration-color:#000000;letter-spacing:normal;word-spacing:normal;text-transform:none;writing-mode:lr-tb;direction:ltr;text-orientation:mixed;dominant-baseline:auto;baseline-shift:baseline;text-anchor:start;white-space:normal;shape-padding:0;clip-rule:nonzero;display:inline;overflow:visible;visibility:visible;opacity:1;isolation:auto;mix-blend-mode:normal;color-interpolation:sRGB;color-interpolation-filters:linearRGB;solid-color:#000000;solid-opacity:1;vector-effect:none;fill:#f2a900;fill-opacity:1;fill-rule:nonzero;stroke:none;stroke-width:7.8153677;stroke-linecap:square;stroke-linejoin:miter;stroke-miterlimit:4;stroke-dasharray:none;stroke-dashoffset:0;stroke-opacity:1;paint-order:normal;color-rendering:auto;image-rendering:auto;shape-rendering:auto;text-rendering:auto;enable-background:accumulate" />
                  <path
                     inkscape:transform-center-y="-362.04447"
                     inkscape:transform-center-x="273.5347"
                     sodipodi:nodetypes="ccsccssssccssc"
                     style="color:#000000;font-style:normal;font-variant:normal;font-weight:normal;font-stretch:normal;font-size:medium;line-height:normal;font-family:sans-serif;font-variant-ligatures:normal;font-variant-position:normal;font-variant-caps:normal;font-variant-numeric:normal;font-variant-alternates:normal;font-feature-settings:normal;text-indent:0;text-align:start;text-decoration:none;text-decoration-line:none;text-decoration-style:solid;text-decoration-color:#000000;letter-spacing:normal;word-spacing:normal;text-transform:none;writing-mode:lr-tb;direction:ltr;text-orientation:mixed;dominant-baseline:auto;baseline-shift:baseline;text-anchor:start;white-space:normal;shape-padding:0;clip-rule:nonzero;display:inline;overflow:visible;visibility:visible;opacity:1;isolation:auto;mix-blend-mode:normal;color-interpolation:sRGB;color-interpolation-filters:linearRGB;solid-color:#000000;solid-opacity:1;vector-effect:none;fill:#f2a900;fill-opacity:1;fill-rule:evenodd;stroke:none;stroke-width:14.82917404;stroke-linecap:butt;stroke-linejoin:miter;stroke-miterlimit:4;stroke-dasharray:none;stroke-dashoffset:0;stroke-opacity:1;color-rendering:auto;image-rendering:auto;shape-rendering:auto;text-rendering:auto;enable-background:accumulate"
                     d="m 1393.1357,623.81476 c 0.6719,-0.41368 1.34,-0.84095 2.004,-1.28173 13.3663,-8.87347 23.1861,-23.68892 26.6397,-40.45118 3.4536,-16.76225 0.025,-36.09148 -13.7038,-51.22638 l -10.0102,9.97086 c 9.9139,10.92966 12.1947,23.82664 9.5437,36.69398 -2.6511,12.86733 -10.7503,25.08468 -21.0004,31.88938 -17.4652,11.59452 -37.8066,11.73236 -57.0065,4.06722 -19.2,-7.66514 -36.945,-23.34914 -47.7793,-42.85294 -16.2829,-29.31225 -17.1665,-63.38978 -6.0529,-91.80385 -15.5575,20.966 -18.8396,32.68978 -21.7888,44.69608 0.9703,18.21016 5.9619,36.64856 15.5126,53.84169 12.807,23.05499 33.314,41.21062 56.1337,50.32087 22.1066,8.82553 46.6779,8.95959 67.5082,-3.864 z"
                     id="path974"
                     inkscape:connector-curvature="0" />
                </g>
                <g
                   id="g4024"
                   style="">
                  <path
                     style="color:#000000;font-style:normal;font-variant:normal;font-weight:normal;font-stretch:normal;font-size:medium;line-height:normal;font-family:sans-serif;font-variant-ligatures:normal;font-variant-position:normal;font-variant-caps:normal;font-variant-numeric:normal;font-variant-alternates:normal;font-feature-settings:normal;text-indent:0;text-align:start;text-decoration:none;text-decoration-line:none;text-decoration-style:solid;text-decoration-color:#000000;letter-spacing:normal;word-spacing:normal;text-transform:none;writing-mode:lr-tb;direction:ltr;text-orientation:mixed;dominant-baseline:auto;baseline-shift:baseline;text-anchor:start;white-space:normal;shape-padding:0;clip-rule:nonzero;display:inline;overflow:visible;visibility:visible;opacity:1;isolation:auto;mix-blend-mode:normal;color-interpolation:sRGB;color-interpolation-filters:linearRGB;solid-color:#000000;solid-opacity:1;vector-effect:none;fill:#f2a900;fill-opacity:1;fill-rule:nonzero;stroke:none;stroke-width:7.8153677;stroke-linecap:square;stroke-linejoin:miter;stroke-miterlimit:4;stroke-dasharray:none;stroke-dashoffset:0;stroke-opacity:1;paint-order:normal;color-rendering:auto;image-rendering:auto;shape-rendering:auto;text-rendering:auto;enable-background:accumulate"
                     d="m 1354.681,548.11289 c 0.257,-8.84567 -6.7866,-16.31106 -15.6322,-16.56807 -8.8457,-0.25703 -16.3111,6.7868 -16.5681,15.63247 -0.257,8.84566 6.7868,16.3108 15.6325,16.56781 8.8456,0.25703 16.3108,-6.78655 16.5678,-15.63221 z m -7.8121,-0.22698 c -0.1343,4.62371 -3.905,8.18147 -8.5287,8.04713 -4.6237,-0.13435 -8.1818,-3.90506 -8.0475,-8.52877 0.1344,-4.6237 3.9054,-8.18174 8.5291,-8.04739 4.6237,0.13435 8.1815,3.90531 8.0471,8.52903 z"
                     id="path1394"
                     inkscape:connector-curvature="0" />
                  <path
                     inkscape:connector-curvature="0"
                     id="path1396"
                     d="m 1423.3757,501.26607 c -0.6942,-0.37508 -1.3983,-0.74004 -2.112,-1.09464 -14.3678,-7.13887 -32.1083,-8.23536 -48.3516,-2.84509 -16.2433,5.39025 -31.2684,18.0245 -37.5115,37.48102 l 13.6401,3.68364 c 4.5085,-14.05051 14.5372,-22.47425 27.0061,-26.61202 12.469,-4.13777 27.0991,-3.23234 38.1172,2.24216 18.7738,9.328 29.0638,26.87527 32.0256,47.3355 2.9618,20.46022 -1.7484,43.66987 -13.2221,62.80455 -17.2437,28.75751 -46.3139,46.56146 -76.478,51.14389 25.9358,2.99018 37.73,-0.0293 49.6023,-3.4784 15.2854,-9.94538 28.7577,-23.48742 38.872,-40.35515 13.5627,-22.61866 19.0325,-49.45609 15.5123,-73.77366 -3.4101,-23.55762 -15.5797,-44.90401 -37.1004,-56.5318 z"
                     style="color:#000000;font-style:normal;font-variant:normal;font-weight:normal;font-stretch:normal;font-size:medium;line-height:normal;font-family:sans-serif;font-variant-ligatures:normal;font-variant-position:normal;font-variant-caps:normal;font-variant-numeric:normal;font-variant-alternates:normal;font-feature-settings:normal;text-indent:0;text-align:start;text-decoration:none;text-decoration-line:none;text-decoration-style:solid;text-decoration-color:#000000;letter-spacing:normal;word-spacing:normal;text-transform:none;writing-mode:lr-tb;direction:ltr;text-orientation:mixed;dominant-baseline:auto;baseline-shift:baseline;text-anchor:start;white-space:normal;shape-padding:0;clip-rule:nonzero;display:inline;overflow:visible;visibility:visible;opacity:1;isolation:auto;mix-blend-mode:normal;color-interpolation:sRGB;color-interpolation-filters:linearRGB;solid-color:#000000;solid-opacity:1;vector-effect:none;fill:#f2a900;fill-opacity:1;fill-rule:evenodd;stroke:none;stroke-width:13.62525558;stroke-linecap:butt;stroke-linejoin:miter;stroke-miterlimit:4;stroke-dasharray:none;stroke-dashoffset:0;stroke-opacity:1;color-rendering:auto;image-rendering:auto;shape-rendering:auto;text-rendering:auto;enable-background:accumulate"
                     sodipodi:nodetypes="ccsccssssccssc"
                     inkscape:transform-center-x="273.5347"
                     inkscape:transform-center-y="-362.04447" />
                </g>
                <g
                   id="g4032"
                   style="">
                  <path
                     inkscape:connector-curvature="0"
                     id="path1400"
                     d="m 1377.0433,572.41982 c -7.7891,4.20026 -10.7325,14.03285 -6.5323,21.82193 4.2003,7.78908 14.0331,10.73241 21.8222,6.53214 7.7891,-4.20025 10.7322,-14.03296 6.5319,-21.82204 -4.2002,-7.78908 -14.0327,-10.73228 -21.8218,-6.53203 z m 3.7095,6.87893 c 4.0714,-2.1955 9.0379,-0.70886 11.2334,3.36257 2.1955,4.07142 0.709,9.03812 -3.3624,11.23364 -4.0715,2.1955 -9.0383,0.70877 -11.2338,-3.36266 -2.1955,-4.07144 -0.7086,-9.03803 3.3628,-11.23355 z"
                     style="color:#000000;font-style:normal;font-variant:normal;font-weight:normal;font-stretch:normal;font-size:medium;line-height:normal;font-family:sans-serif;font-variant-ligatures:normal;font-variant-position:normal;font-variant-caps:normal;font-variant-numeric:normal;font-variant-alternates:normal;font-feature-settings:normal;text-indent:0;text-align:start;text-decoration:none;text-decoration-line:none;text-decoration-style:solid;text-decoration-color:#000000;letter-spacing:normal;word-spacing:normal;text-transform:none;writing-mode:lr-tb;direction:ltr;text-orientation:mixed;dominant-baseline:auto;baseline-shift:baseline;text-anchor:start;white-space:normal;shape-padding:0;clip-rule:nonzero;display:inline;overflow:visible;visibility:visible;opacity:1;isolation:auto;mix-blend-mode:normal;color-interpolation:sRGB;color-interpolation-filters:linearRGB;solid-color:#000000;solid-opacity:1;vector-effect:none;fill:#f2a900;fill-opacity:1;fill-rule:nonzero;stroke:none;stroke-width:7.8153677;stroke-linecap:square;stroke-linejoin:miter;stroke-miterlimit:4;stroke-dasharray:none;stroke-dashoffset:0;stroke-opacity:1;paint-order:normal;color-rendering:auto;image-rendering:auto;shape-rendering:auto;text-rendering:auto;enable-background:accumulate" />
                  <path
                     inkscape:transform-center-y="-362.04447"
                     inkscape:transform-center-x="273.5347"
                     sodipodi:nodetypes="ccsccssssccssc"
                     style="color:#000000;font-style:normal;font-variant:normal;font-weight:normal;font-stretch:normal;font-size:medium;line-height:normal;font-family:sans-serif;font-variant-ligatures:normal;font-variant-position:normal;font-variant-caps:normal;font-variant-numeric:normal;font-variant-alternates:normal;font-feature-settings:normal;text-indent:0;text-align:start;text-decoration:none;text-decoration-line:none;text-decoration-style:solid;text-decoration-color:#000000;letter-spacing:normal;word-spacing:normal;text-transform:none;writing-mode:lr-tb;direction:ltr;text-orientation:mixed;dominant-baseline:auto;baseline-shift:baseline;text-anchor:start;white-space:normal;shape-padding:0;clip-rule:nonzero;display:inline;overflow:visible;visibility:visible;opacity:1;isolation:auto;mix-blend-mode:normal;color-interpolation:sRGB;color-interpolation-filters:linearRGB;solid-color:#000000;solid-opacity:1;vector-effect:none;fill:#f2a900;fill-opacity:1;fill-rule:evenodd;stroke:none;stroke-width:14.82917404;stroke-linecap:butt;stroke-linejoin:miter;stroke-miterlimit:4;stroke-dasharray:none;stroke-dashoffset:0;stroke-opacity:1;color-rendering:auto;image-rendering:auto;shape-rendering:auto;text-rendering:auto;enable-background:accumulate"
                     d="m 1302.1254,536.35185 c 0.022,0.78877 0.058,1.581 0.108,2.37638 1.0015,16.01234 8.9222,31.92427 21.7119,43.29627 12.7898,11.372 31.2439,18.06698 51.2153,13.74536 l -3.63,-13.6545 c -14.4223,3.12085 -26.7318,-1.35239 -36.5497,-10.08195 -9.8179,-8.72958 -16.3488,-21.85235 -17.1168,-34.13155 -1.3086,-20.92252 8.7427,-38.60762 24.9809,-51.40272 16.2382,-12.79508 38.6935,-20.32074 61.0014,-19.95162 33.5266,0.55475 63.4804,16.82833 82.5309,40.65997 -10.3783,-23.95618 -18.8904,-32.66048 -27.8135,-41.21768 -16.2556,-8.26478 -34.7196,-13.16114 -54.3846,-13.48653 -26.3697,-0.43634 -52.3465,8.24545 -71.646,23.45278 -18.6964,14.73209 -31.0982,35.94442 -30.4078,60.39579 z"
                     id="path1402"
                     inkscape:connector-curvature="0" />
                </g>
              </g>
            </g>
          </g>
        </g>
      </g>
      <g
         id="layer3-6"
         inkscape:label="PONTEIRO_CENTRO"
         style="display:none"
         transform="matrix(0.13584224,-0.01056624,0.01056624,0.13584224,372.05775,-66.63883)">
        <g
           id="g9790-7" />
        <path
           style="display:inline;opacity:0.98999999;fill:#424242;fill-opacity:1;fill-rule:nonzero;stroke:none;stroke-width:5.80000019;stroke-linecap:butt;stroke-linejoin:bevel;stroke-miterlimit:4;stroke-dasharray:none;stroke-dashoffset:0;stroke-opacity:1;paint-order:normal"
           id="path1052-4"
           sodipodi:type="arc"
           sodipodi:cx="971.40948"
           sodipodi:cy="949.24976"
           sodipodi:rx="900"
           sodipodi:ry="900"
           sodipodi:start="0"
           sodipodi:end="0.17212667"
           d="M 1871.4095,949.24976 A 900,900 0 0 1 1858.11,1103.3999 L 971.40948,949.24976 Z" />
      </g>
      <g
         aria-label="TITAN"
         transform="matrix(0.37288169,-0.37288169,0.38505177,0.38505177,171.22384,790.54255)"
         style="font-style:normal;font-variant:normal;font-weight:normal;font-stretch:normal;font-size:300px;line-height:1.25;font-family:AcadEref;-inkscape-font-specification:AcadEref;letter-spacing:0px;word-spacing:0px;opacity:0.1;fill:#424242;fill-opacity:1;stroke:#424242;stroke-width:9.89914703;stroke-miterlimit:4;stroke-dasharray:none;stroke-opacity:1"
         id="flowRoot4168">
        <path
           inkscape:connector-curvature="0"
           d="m 520.85742,875.84231 h -57.56836 v 213.57419 h -4.83398 V 875.84231 h -57.56836 v -4.83399 h 119.9707 z"
           style="font-style:normal;font-variant:normal;font-weight:normal;font-stretch:normal;font-size:300px;font-family:ISOCT2;-inkscape-font-specification:ISOCT2;fill:#424242;fill-opacity:1;stroke:#424242;stroke-width:9.89914703;stroke-miterlimit:4;stroke-dasharray:none;stroke-opacity:1"
           id="path4176" />
        <path
           inkscape:connector-curvature="0"
           d="M 701.17969,1089.4165 H 696.3457 V 873.35207 h 4.83399 z"
           style="font-style:normal;font-variant:normal;font-weight:normal;font-stretch:normal;font-size:300px;font-family:ISOCT2;-inkscape-font-specification:ISOCT2;fill:#424242;fill-opacity:1;stroke:#424242;stroke-width:9.89914703;stroke-miterlimit:4;stroke-dasharray:none;stroke-opacity:1"
           id="path4178" />
        <path
           inkscape:connector-curvature="0"
           d="m 996.63867,875.84231 h -57.56836 v 213.57419 h -4.83398 V 875.84231 h -57.56836 v -4.83399 h 119.9707 z"
           style="font-style:normal;font-variant:normal;font-weight:normal;font-stretch:normal;font-size:300px;font-family:ISOCT2;-inkscape-font-specification:ISOCT2;fill:#424242;fill-opacity:1;stroke:#424242;stroke-width:9.89914703;stroke-miterlimit:4;stroke-dasharray:none;stroke-opacity:1"
           id="path4180" />
        <path
           d="m 1248.8848,1089.4165 h -4.541 l -19.4825,-57.5683 H 1124.373 l -19.4824,57.5683 h -4.541 l 71.6309,-215.91794 h 5.1269 z m -25.6348,-62.4023 -48.6328,-146.04494 -48.7793,146.04494 z"
           style="font-style:normal;font-variant:normal;font-weight:normal;font-stretch:normal;font-size:300px;font-family:ISOCT2;-inkscape-font-specification:ISOCT2;fill:#424242;fill-opacity:1;stroke:#424242;stroke-width:9.89914703;stroke-miterlimit:4;stroke-dasharray:none;stroke-opacity:1"
           id="path4182"
           inkscape:connector-curvature="0"
           sodipodi:nodetypes="ccccccccccccc" />
        <path
           inkscape:connector-curvature="0"
           d="m 1474.9102,1089.4165 h -5.127 L 1354.793,882.72707 v 206.68943 h -4.6875 V 873.35207 h 5.1269 L 1470.0762,1080.188 V 873.35207 h 4.834 z"
           style="font-style:normal;font-variant:normal;font-weight:normal;font-stretch:normal;font-size:300px;font-family:ISOCT2;-inkscape-font-specification:ISOCT2;fill:#424242;fill-opacity:1;stroke:#424242;stroke-width:9.89914703;stroke-miterlimit:4;stroke-dasharray:none;stroke-opacity:1"
           id="path4184" />
      </g>
      <text
         xml:space="preserve"
         style="font-style:normal;font-variant:normal;font-weight:normal;font-stretch:normal;font-size:32.01976013px;line-height:1.25;font-family:ISOCT2;-inkscape-font-specification:ISOCT2;letter-spacing:0px;word-spacing:0px;opacity:0.1;fill:#000000;fill-opacity:1;stroke:#424242;stroke-width:1.71910858;stroke-opacity:1"
         x="-214.66934"
         y="1309.8612"
         id="text946"
         transform="matrix(0.71004188,-0.70418382,0.71004188,0.70418382,0,0)"><tspan
           sodipodi:role="line"
           id="tspan944"
           x="-214.66934"
           y="1309.8612"
           style="font-style:normal;font-variant:normal;font-weight:normal;font-stretch:normal;line-height:3.25;font-family:ISOCT2;-inkscape-font-specification:ISOCT2;stroke:#424242;stroke-width:1.71910858;stroke-opacity:1">COMPUTAÇÃO INTELIGENTE</tspan></text>
      <flowRoot
         xml:space="preserve"
         id="flowRoot948"
         style="fill:black;fill-opacity:1;stroke:none;font-family:Bahnschrift;font-style:normal;font-weight:normal;font-size:16px;line-height:1.25;letter-spacing:0px;word-spacing:0px;-inkscape-font-specification:Bahnschrift;font-stretch:normal;font-variant:normal"><flowRegion
           id="flowRegion950"><rect
             id="rect952"
             width="248.49753"
             height="16.162441"
             x="-115.15739"
             y="825.53485" /></flowRegion><flowPara
           id="flowPara954" /></flowRoot>    </g>
  </g>
</svg>
